\relax 
\providecommand\hyper@newdestlabel[2]{}
\providecommand\BKM@entry[2]{}
\providecommand*{\memsetcounter}[2]{}
\providecommand\HyperFirstAtBeginDocument{\AtBeginDocument}
\HyperFirstAtBeginDocument{\ifx\hyper@anchor\@undefined
\global\let\oldcontentsline\contentsline
\gdef\contentsline#1#2#3#4{\oldcontentsline{#1}{#2}{#3}}
\global\let\oldnewlabel\newlabel
\gdef\newlabel#1#2{\newlabelxx{#1}#2}
\gdef\newlabelxx#1#2#3#4#5#6{\oldnewlabel{#1}{{#2}{#3}}}
\AtEndDocument{\ifx\hyper@anchor\@undefined
\let\contentsline\oldcontentsline
\let\newlabel\oldnewlabel
\fi}
\fi}
\global\let\hyper@last\relax 
\gdef\HyperFirstAtBeginDocument#1{#1}
\providecommand\HyField@AuxAddToFields[1]{}
\providecommand\HyField@AuxAddToCoFields[2]{}
\catcode `"\active 
\citation{abnt-url-package=url}
\select@language{brazil}
\@writefile{toc}{\select@language{brazil}}
\@writefile{lof}{\select@language{brazil}}
\@writefile{lot}{\select@language{brazil}}
\BKM@entry{id=1,dest={6368617074657262312E30},srcline={26}}{466F6C686120646520726F73746F}
\@input{resumo/ptbr.aux}
\BKM@entry{id=2,dest={6368617074657262322E30},srcline={5}}{526573756D6F}
\@input{resumo/us.aux}
\BKM@entry{id=3,dest={6368617074657262332E30},srcline={2}}{4162737472616374}
\BKM@entry{id=4,dest={6C6F662E30},srcline={52}}{4C6973746120646520696C75737472615C3334375C3336356573}
\citation{Nelson2014}
\citation{Solomons2000}
\citation{Aminoacidos}
\citation{Nelson2014}
\citation{Nelson2014}
\@writefile{toc}{\setlength  {\cftchapterindent }{\cftlastnumwidth } \setlength  {\cftchapternumwidth }{2em}}
\@writefile{brf}{\backcite{Nelson2014}{{6}{(document)}{Doc-Start}}}
\@writefile{brf}{\backcite{Solomons2000}{{6}{(document)}{Doc-Start}}}
\@writefile{brf}{\backcite{Aminoacidos}{{6}{(document)}{Doc-Start}}}
\@writefile{brf}{\backcite{Nelson2014}{{6}{(document)}{Doc-Start}}}
\@writefile{brf}{\backcite{Nelson2014}{{6}{(document)}{Doc-Start}}}
\BKM@entry{id=5,dest={6C6F742E30},srcline={57}}{4C6973746120646520746162656C6173}
\citation{Aminoacidos}
\@writefile{toc}{\setlength  {\cftchapterindent }{\cftlastnumwidth } \setlength  {\cftchapternumwidth }{2em}}
\@writefile{brf}{\backcite{Aminoacidos}{{7}{(document)}{Doc-Start}}}
\@input{editaveis/siglas.aux}
\BKM@entry{id=6,dest={6368617074657262352E30},srcline={3}}{4C69737461206465206162726576696174757261732065207369676C6173}
\@input{editaveis/simbolos.aux}
\BKM@entry{id=7,dest={6368617074657262372E30},srcline={3}}{4C6973746120646520735C3335356D626F6C6F73}
\BKM@entry{id=8,dest={746F632E30},srcline={68}}{53756D5C33343172696F}
\@writefile{toc}{\setlength  {\cftchapterindent }{\cftlastnumwidth } \setlength  {\cftchapternumwidth }{2em}}
\BKM@entry{id=9,dest={636861707465722E31},srcline={80}}{496E74726F64755C3334375C3334336F}
\citation{Berger1998}
\citation{Nelson2014}
\citation{Jensen2007}
\citation{Nelson2014}
\citation{Nelson2014}
\@writefile{toc}{\setlength  {\cftchapterindent }{0em} \setlength  {\cftchapternumwidth }{\cftlastnumwidth }}
\@writefile{toc}{\contentsline {chapter}{\chapternumberline {1}\MakeTextUppercase  {Introdu\IeC {\c c}\IeC {\~a}o}}{11}{chapter.1}}
\@writefile{loa}{\addvspace {10\p@ }}
\@writefile{brf}{\backcite{Berger1998}{{11}{1}{chapter.1}}}
\@writefile{brf}{\backcite{Nelson2014}{{11}{1}{chapter.1}}}
\@writefile{brf}{\backcite{Jensen2007}{{11}{1}{chapter.1}}}
\@writefile{lof}{\contentsline {figure}{\numberline {1}{\ignorespaces Conforma\IeC {\c c}\IeC {\~o}es que podem ser geradas de um mesmo pept\IeC {\'\i }deo variando os \IeC {\^a}ngulos diedro $ \phi $ e $ \psi $. Fonte: Extra\IeC {\'\i }da de \cite  {Nelson2014} }}{11}{figure.1.1}}
\@writefile{brf}{\backcite{Nelson2014}{{11}{1}{figure.1.1}}}
\@input{introducao/objetivos.aux}
\BKM@entry{id=10,dest={73656374696F6E2E312E31},srcline={1}}{4F626A657469766F73}
\BKM@entry{id=11,dest={73756273656374696F6E2E312E312E31},srcline={3}}{4F626A657469766F20476572616C}
\BKM@entry{id=12,dest={73756273656374696F6E2E312E312E32},srcline={7}}{4F626A657469766F2045737065635C3335356669636F}
\@input{introducao/justificativa.aux}
\BKM@entry{id=13,dest={73656374696F6E2E312E32},srcline={1}}{4A757374696669636174697661}
\BKM@entry{id=14,dest={636861707465722E32},srcline={95}}{45737461646F2064612041727465}
\citation{Maupetit2009}
\citation{Thevenet2012}
\citation{sun1995genetic}
\@writefile{toc}{\setlength  {\cftchapterindent }{0em} \setlength  {\cftchapternumwidth }{\cftlastnumwidth }}
\@writefile{toc}{\contentsline {chapter}{\chapternumberline {2}\MakeTextUppercase  {Estado da Arte}}{14}{chapter.2}}
\@writefile{loa}{\addvspace {10\p@ }}
\@writefile{brf}{\backcite{Maupetit2009}{{14}{2}{chapter.2}}}
\@writefile{brf}{\backcite{Thevenet2012}{{14}{2}{chapter.2}}}
\@writefile{brf}{\backcite{sun1995genetic}{{14}{2}{chapter.2}}}
\BKM@entry{id=15,dest={636861707465722E33},srcline={102}}{46756E64616D656E74615C3334375C3334336F2054655C33363372696361}
\@writefile{toc}{\setlength  {\cftchapterindent }{0em} \setlength  {\cftchapternumwidth }{\cftlastnumwidth }}
\@writefile{toc}{\contentsline {chapter}{\chapternumberline {3}\MakeTextUppercase  {Fundamenta\IeC {\c c}\IeC {\~a}o Te\IeC {\'o}rica}}{15}{chapter.3}}
\@writefile{loa}{\addvspace {10\p@ }}
\@input{fundamentacao-teorica/modelagem-molecular.aux}
\BKM@entry{id=16,dest={73656374696F6E2E332E31},srcline={1}}{4D6F64656C6167656D204D6F6C6563756C6172}
\BKM@entry{id=17,dest={73756273656374696F6E2E332E312E31},srcline={5}}{4D5C333531746F646F20616220696E6974656F}
\BKM@entry{id=18,dest={73756273656374696F6E2E332E312E32},srcline={19}}{416E5C3334316C69736520436F6E666F726D6163696F6E616C}
\@input{fundamentacao-teorica/aminoacidos.aux}
\BKM@entry{id=19,dest={73656374696F6E2E332E32},srcline={1}}{416D696E6F5C3334316369646F73}
\@input{fundamentacao-teorica/peptideos.aux}
\BKM@entry{id=20,dest={73656374696F6E2E332E33},srcline={1}}{506570745C33353564656F73}
\BKM@entry{id=21,dest={73756273656374696F6E2E332E332E31},srcline={15}}{436C61737369666963615C3334375C3334336F206573747275747572616C}
\@input{fundamentacao-teorica/algoritimos-evolutivos.aux}
\BKM@entry{id=22,dest={73656374696F6E2E332E34},srcline={1}}{416C676F7269746D6F732045766F6C757469766F73}
\BKM@entry{id=23,dest={73756273656374696F6E2E332E342E31},srcline={12}}{416C676F7269746D6F732047656E5C3335317469636F73}
\bibdata{abntex2-options,bibtex/referencias}
\BKM@entry{id=24,dest={73656374696F6E2A2E3130},srcline={3}}{52656665725C3335326E63696173}
\bibcite{Aminoacidos}{Amino\'acidos 2017}
\bibciteEXPL{Aminoacidos}{Amino\'acidos}
\bibciteIMPL{Aminoacidos}{AMINO\'ACIDOS}
\bibciteYEAR{Aminoacidos}{2017}
\bibcite{Berg2014}{Berg, Tymoczko e Stryer 2014}
\bibciteEXPL{Berg2014}{Berg, Tymoczko e Stryer}
\bibciteIMPL{Berg2014}{BERG; TYMOCZKO; STRYER}
\bibciteYEAR{Berg2014}{2014}
\bibcite{Berger1998}{Berger e Leighton 1998}
\bibciteEXPL{Berger1998}{Berger e Leighton}
\bibciteIMPL{Berger1998}{BERGER; LEIGHTON}
\bibciteYEAR{Berger1998}{1998}
\bibcite{Carvalho2003}{Carvalho et al. 2003}
\bibciteEXPL{Carvalho2003}{Carvalho et al.}
\bibciteIMPL{Carvalho2003}{CARVALHO et al.}
\bibciteYEAR{Carvalho2003}{2003}
\bibcite{Crescenzi1998}{Crescenzi et al. 1998}
\bibciteEXPL{Crescenzi1998}{Crescenzi et al.}
\bibciteIMPL{Crescenzi1998}{CRESCENZI et al.}
\bibciteYEAR{Crescenzi1998}{1998}
\bibcite{Jensen2007}{Jensen 2007}
\bibciteEXPL{Jensen2007}{Jensen}
\bibciteIMPL{Jensen2007}{JENSEN}
\bibciteYEAR{Jensen2007}{2007}
\bibcite{Levine1991}{Levine 1991}
\bibciteEXPL{Levine1991}{Levine}
\bibciteIMPL{Levine1991}{LEVINE}
\bibciteYEAR{Levine1991}{1991}
\bibcite{Ricardo2008}{Linden 2008}
\bibciteEXPL{Ricardo2008}{Linden}
\bibciteIMPL{Ricardo2008}{LINDEN}
\bibciteYEAR{Ricardo2008}{2008}
\bibcite{Maupetit2009}{Maupetit, Derreumaux e Tuffery 2009}
\bibciteEXPL{Maupetit2009}{Maupetit, Derreumaux e Tuffery}
\bibciteIMPL{Maupetit2009}{MAUPETIT; DERREUMAUX; TUFFERY}
\bibciteYEAR{Maupetit2009}{2009}
\bibcite{MetodosAbinitio2017}{M\'etodos ab initio 2017}
\bibciteEXPL{MetodosAbinitio2017}{M\'etodos\ldots  }
\bibciteIMPL{MetodosAbinitio2017}{M\'ETODOS\ldots  }
\bibciteYEAR{MetodosAbinitio2017}{2017}
\bibcite{ModelagemMolecular2016}{Modelagem molecular 2016}
\bibciteEXPL{ModelagemMolecular2016}{Modelagem\ldots  }
\bibciteIMPL{ModelagemMolecular2016}{MODELAGEM\ldots  }
\bibciteYEAR{ModelagemMolecular2016}{2016}
\bibcite{Nelson2014}{Nelson e Cox 2014}
\bibciteEXPL{Nelson2014}{Nelson e Cox}
\bibciteIMPL{Nelson2014}{NELSON; COX}
\bibciteYEAR{Nelson2014}{2014}
\bibcite{Ramachandran2008}{Ramachandran, Deepa e Namboori 2008}
\bibciteEXPL{Ramachandran2008}{Ramachandran, Deepa e Namboori}
\bibciteIMPL{Ramachandran2008}{RAMACHANDRAN; DEEPA; NAMBOORI}
\bibciteYEAR{Ramachandran2008}{2008}
\bibcite{Rigden2017}{Rigden 2017}
\bibciteEXPL{Rigden2017}{Rigden}
\bibciteIMPL{Rigden2017}{RIGDEN}
\bibciteYEAR{Rigden2017}{2017}
\@writefile{toc}{\vspace  {\cftbeforechapterskip }}
\@writefile{toc}{\setlength  {\cftchapterindent }{\cftlastnumwidth } \setlength  {\cftchapternumwidth }{2em}}
\@writefile{toc}{\contentsline {chapter}{\uppercase {Refer\^encias}}{23}{section*.10}}
\bibcite{Solomons2000}{Solomons e Fryhle 2000}
\bibciteEXPL{Solomons2000}{Solomons e Fryhle}
\bibciteIMPL{Solomons2000}{SOLOMONS; FRYHLE}
\bibciteYEAR{Solomons2000}{2000}
\bibcite{sun1995genetic}{Sun 1995}
\bibciteEXPL{sun1995genetic}{Sun}
\bibciteIMPL{sun1995genetic}{SUN}
\bibciteYEAR{sun1995genetic}{1995}
\bibcite{Thevenet2012}{Th\'evenet et al. 2012}
\bibciteEXPL{Thevenet2012}{Th\'evenet et al.}
\bibciteIMPL{Thevenet2012}{TH\'EVENET et al.}
\bibciteYEAR{Thevenet2012}{2012}
\@writefile{toc}{\vspace  {\cftbeforechapterskip }}
\newlabel{LastPage}{{}{24}{}{page.24}{}}
\xdef\lastpage@lastpage{24}
\xdef\lastpage@lastpageHy{24}
\bibstyle{abntex2-alf}
\memsetcounter{lastsheet}{25}
\memsetcounter{lastpage}{24}
