\relax 
\providecommand\hyper@newdestlabel[2]{}
\citation{Nelson2014}
\citation{Aminoacidos}
\citation{Aminoacidos}
\citation{Aminoacidos}
\citation{Aminoacidos}
\citation{Nelson2014}
\@writefile{toc}{\contentsline {section}{\numberline {3.2}Amino\IeC {\'a}cidos}{18}{section.3.2}}
\@writefile{brf}{\backcite{Nelson2014}{{18}{3.2}{section.3.2}}}
\@writefile{lof}{\contentsline {figure}{\numberline {3}{\ignorespaces Estrutura geral de um amino\IeC {\'a}cido. Fonte: Extra\IeC {\'\i }da de \cite  {Aminoacidos} }}{18}{figure.3.3}}
\@writefile{brf}{\backcite{Aminoacidos}{{18}{3}{figure.3.3}}}
\newlabel{tab:simbologia-aminoacidos}{{\M@TitleReference {3.2}{Amino\IeC {\'a}cidos}}{18}{Aminoácidos}{figure.3.3}{}}
\@writefile{lot}{\contentsline {table}{\numberline {1}{\ignorespaces Simbologia dos amino\IeC {\'a}cidos. Fonte: extra\IeC {\'\i }do de \cite  {Aminoacidos}}}{18}{table.3.1}}
\@writefile{brf}{\backcite{Aminoacidos}{{18}{1}{table.3.1}}}
\@writefile{brf}{\backcite{Nelson2014}{{19}{3.2}{table.3.1}}}
\@setckpt{fundamentacao-teorica/aminoacidos}{
\setcounter{page}{20}
\setcounter{equation}{0}
\setcounter{enumi}{0}
\setcounter{enumii}{0}
\setcounter{enumiii}{0}
\setcounter{enumiv}{0}
\setcounter{footnote}{0}
\setcounter{mpfootnote}{0}
\setcounter{@memmarkcntra}{-1}
\setcounter{storedpagenumber}{1}
\setcounter{book}{0}
\setcounter{part}{0}
\setcounter{chapter}{3}
\setcounter{section}{2}
\setcounter{subsection}{0}
\setcounter{subsubsection}{0}
\setcounter{paragraph}{0}
\setcounter{subparagraph}{0}
\setcounter{@ppsavesec}{0}
\setcounter{@ppsaveapp}{0}
\setcounter{vslineno}{0}
\setcounter{poemline}{0}
\setcounter{modulo@vs}{0}
\setcounter{memfvsline}{0}
\setcounter{verse}{0}
\setcounter{chrsinstr}{0}
\setcounter{poem}{0}
\setcounter{newflo@tctr}{4}
\setcounter{@contsubnum}{0}
\setcounter{maxsecnumdepth}{4}
\setcounter{sidefootnote}{0}
\setcounter{pagenote}{0}
\setcounter{pagenoteshadow}{0}
\setcounter{memfbvline}{0}
\setcounter{bvlinectr}{0}
\setcounter{cp@cntr}{0}
\setcounter{ism@mctr}{0}
\setcounter{xsm@mctr}{0}
\setcounter{csm@mctr}{0}
\setcounter{ksm@mctr}{0}
\setcounter{xksm@mctr}{0}
\setcounter{cksm@mctr}{0}
\setcounter{msm@mctr}{0}
\setcounter{xmsm@mctr}{0}
\setcounter{cmsm@mctr}{0}
\setcounter{bsm@mctr}{0}
\setcounter{workm@mctr}{0}
\setcounter{sheetsequence}{21}
\setcounter{lastsheet}{25}
\setcounter{lastpage}{24}
\setcounter{figure}{3}
\setcounter{lofdepth}{1}
\setcounter{table}{1}
\setcounter{lotdepth}{1}
\setcounter{Item}{0}
\setcounter{Hfootnote}{0}
\setcounter{memhycontfloat}{0}
\setcounter{Hpagenote}{0}
\setcounter{bookmark@seq@number}{0}
\setcounter{abntex@bookmarkcounter}{7}
\setcounter{alineasi}{0}
\setcounter{alineasii}{0}
\setcounter{subalineasi}{0}
\setcounter{incisosi}{0}
\setcounter{lips@count}{0}
\setcounter{ABCIaux}{0}
\setcounter{ABCImax}{0}
\setcounter{parentequation}{0}
\setcounter{AlgoLine}{0}
\setcounter{algocfline}{0}
\setcounter{algocfproc}{0}
\setcounter{algocf}{0}
\setcounter{float@type}{4}
\setcounter{section@level}{1}
}
