\relax 
\providecommand\hyper@newdestlabel[2]{}
\citation{Carvalho2003}
\citation{ModelagemMolecular2016}
\citation{Levine1991}
\citation{MetodosAbinitio2017}
\citation{Ramachandran2008}
\citation{Rigden2017}
\citation{Solomons2000}
\citation{Solomons2000}
\citation{Solomons2000}
\citation{Solomons2000}
\@writefile{toc}{\contentsline {section}{\numberline {3.1}Modelagem Molecular}{16}{section.3.1}}
\@writefile{brf}{\backcite{Carvalho2003}{{16}{3.1}{section.3.1}}}
\@writefile{brf}{\backcite{ModelagemMolecular2016}{{16}{3.1}{section.3.1}}}
\@writefile{toc}{\contentsline {subsection}{\numberline {3.1.1}M\IeC {\'e}todo \textit  {ab initeo}}{16}{subsection.3.1.1}}
\@writefile{brf}{\backcite{Levine1991}{{16}{3.1.1}{subsection.3.1.1}}}
\@writefile{brf}{\backcite{MetodosAbinitio2017}{{16}{3.1.1}{subsection.3.1.1}}}
\@writefile{brf}{\backcite{Ramachandran2008}{{16}{3.1.1}{subsection.3.1.1}}}
\@writefile{brf}{\backcite{Rigden2017}{{16}{3.1.1}{subsection.3.1.1}}}
\@writefile{toc}{\contentsline {subsection}{\numberline {3.1.2}An\IeC {\'a}lise Conformacional}{16}{subsection.3.1.2}}
\@writefile{brf}{\backcite{Solomons2000}{{16}{3.1.2}{subsection.3.1.2}}}
\@writefile{brf}{\backcite{Solomons2000}{{16}{3.1.2}{subsection.3.1.2}}}
\@writefile{lof}{\contentsline {figure}{\numberline {2}{\ignorespaces Varia\IeC {\c c}\IeC {\~o}es de energia das rota\IeC {\c c}\IeC {\~o}es que surgem em torno da liga\IeC {\c c}\IeC {\~a}o C2 e C3 do butano. Fonte: Extra\IeC {\'\i }da de \cite  {Solomons2000} }}{17}{figure.3.2}}
\@writefile{brf}{\backcite{Solomons2000}{{17}{2}{figure.3.2}}}
\@setckpt{fundamentacao-teorica/modelagem-molecular}{
\setcounter{page}{18}
\setcounter{equation}{0}
\setcounter{enumi}{0}
\setcounter{enumii}{0}
\setcounter{enumiii}{0}
\setcounter{enumiv}{0}
\setcounter{footnote}{0}
\setcounter{mpfootnote}{0}
\setcounter{@memmarkcntra}{-1}
\setcounter{storedpagenumber}{1}
\setcounter{book}{0}
\setcounter{part}{0}
\setcounter{chapter}{3}
\setcounter{section}{1}
\setcounter{subsection}{2}
\setcounter{subsubsection}{0}
\setcounter{paragraph}{0}
\setcounter{subparagraph}{0}
\setcounter{@ppsavesec}{0}
\setcounter{@ppsaveapp}{0}
\setcounter{vslineno}{0}
\setcounter{poemline}{0}
\setcounter{modulo@vs}{0}
\setcounter{memfvsline}{0}
\setcounter{verse}{0}
\setcounter{chrsinstr}{0}
\setcounter{poem}{0}
\setcounter{newflo@tctr}{4}
\setcounter{@contsubnum}{0}
\setcounter{maxsecnumdepth}{4}
\setcounter{sidefootnote}{0}
\setcounter{pagenote}{0}
\setcounter{pagenoteshadow}{0}
\setcounter{memfbvline}{0}
\setcounter{bvlinectr}{0}
\setcounter{cp@cntr}{0}
\setcounter{ism@mctr}{0}
\setcounter{xsm@mctr}{0}
\setcounter{csm@mctr}{0}
\setcounter{ksm@mctr}{0}
\setcounter{xksm@mctr}{0}
\setcounter{cksm@mctr}{0}
\setcounter{msm@mctr}{0}
\setcounter{xmsm@mctr}{0}
\setcounter{cmsm@mctr}{0}
\setcounter{bsm@mctr}{0}
\setcounter{workm@mctr}{0}
\setcounter{sheetsequence}{19}
\setcounter{lastsheet}{25}
\setcounter{lastpage}{24}
\setcounter{figure}{2}
\setcounter{lofdepth}{1}
\setcounter{table}{0}
\setcounter{lotdepth}{1}
\setcounter{Item}{0}
\setcounter{Hfootnote}{0}
\setcounter{memhycontfloat}{0}
\setcounter{Hpagenote}{0}
\setcounter{bookmark@seq@number}{0}
\setcounter{abntex@bookmarkcounter}{7}
\setcounter{alineasi}{0}
\setcounter{alineasii}{0}
\setcounter{subalineasi}{0}
\setcounter{incisosi}{0}
\setcounter{lips@count}{0}
\setcounter{ABCIaux}{0}
\setcounter{ABCImax}{0}
\setcounter{parentequation}{0}
\setcounter{AlgoLine}{0}
\setcounter{algocfline}{0}
\setcounter{algocfproc}{0}
\setcounter{algocf}{0}
\setcounter{float@type}{4}
\setcounter{section@level}{2}
}
