\relax 
\providecommand\hyper@newdestlabel[2]{}
\citation{Nelson2014}
\citation{Nelson2014}
\citation{Nelson2014}
\citation{Berg2014}
\citation{Nelson2014}
\citation{Nelson2014}
\@writefile{toc}{\contentsline {section}{\numberline {3.3}Pept\IeC {\'\i }deos}{20}{section.3.3}}
\@writefile{brf}{\backcite{Nelson2014}{{20}{3.3}{section.3.3}}}
\@writefile{lof}{\contentsline {figure}{\numberline {4}{\ignorespaces Forma\IeC {\c c}\IeC {\~a}o de uma liga\IeC {\c c}\IeC {\~a}o pept\IeC {\'\i }dica por condensa\IeC {\c c}\IeC {\~a}o. Fonte: Extra\IeC {\'\i }da de \cite  {Nelson2014} }}{20}{figure.3.4}}
\@writefile{brf}{\backcite{Nelson2014}{{20}{4}{figure.3.4}}}
\@writefile{toc}{\contentsline {subsection}{\numberline {3.3.1}Classifica\IeC {\c c}\IeC {\~a}o estrutural}{20}{subsection.3.3.1}}
\@writefile{brf}{\backcite{Berg2014}{{20}{3.3.1}{subsection.3.3.1}}}
\@writefile{lof}{\contentsline {figure}{\numberline {5}{\ignorespaces N\IeC {\'\i }veis de estrutura. Fonte: Extra\IeC {\'\i }da de \cite  {Nelson2014} }}{21}{figure.3.5}}
\@writefile{brf}{\backcite{Nelson2014}{{21}{5}{figure.3.5}}}
\@setckpt{fundamentacao-teorica/peptideos}{
\setcounter{page}{22}
\setcounter{equation}{0}
\setcounter{enumi}{0}
\setcounter{enumii}{0}
\setcounter{enumiii}{0}
\setcounter{enumiv}{0}
\setcounter{footnote}{0}
\setcounter{mpfootnote}{0}
\setcounter{@memmarkcntra}{-1}
\setcounter{storedpagenumber}{1}
\setcounter{book}{0}
\setcounter{part}{0}
\setcounter{chapter}{3}
\setcounter{section}{3}
\setcounter{subsection}{1}
\setcounter{subsubsection}{0}
\setcounter{paragraph}{0}
\setcounter{subparagraph}{0}
\setcounter{@ppsavesec}{0}
\setcounter{@ppsaveapp}{0}
\setcounter{vslineno}{0}
\setcounter{poemline}{0}
\setcounter{modulo@vs}{0}
\setcounter{memfvsline}{0}
\setcounter{verse}{0}
\setcounter{chrsinstr}{0}
\setcounter{poem}{0}
\setcounter{newflo@tctr}{4}
\setcounter{@contsubnum}{0}
\setcounter{maxsecnumdepth}{4}
\setcounter{sidefootnote}{0}
\setcounter{pagenote}{0}
\setcounter{pagenoteshadow}{0}
\setcounter{memfbvline}{0}
\setcounter{bvlinectr}{0}
\setcounter{cp@cntr}{0}
\setcounter{ism@mctr}{0}
\setcounter{xsm@mctr}{0}
\setcounter{csm@mctr}{0}
\setcounter{ksm@mctr}{0}
\setcounter{xksm@mctr}{0}
\setcounter{cksm@mctr}{0}
\setcounter{msm@mctr}{0}
\setcounter{xmsm@mctr}{0}
\setcounter{cmsm@mctr}{0}
\setcounter{bsm@mctr}{0}
\setcounter{workm@mctr}{0}
\setcounter{sheetsequence}{23}
\setcounter{lastsheet}{25}
\setcounter{lastpage}{24}
\setcounter{figure}{5}
\setcounter{lofdepth}{1}
\setcounter{table}{1}
\setcounter{lotdepth}{1}
\setcounter{Item}{0}
\setcounter{Hfootnote}{0}
\setcounter{memhycontfloat}{0}
\setcounter{Hpagenote}{0}
\setcounter{bookmark@seq@number}{0}
\setcounter{abntex@bookmarkcounter}{7}
\setcounter{alineasi}{0}
\setcounter{alineasii}{0}
\setcounter{subalineasi}{0}
\setcounter{incisosi}{0}
\setcounter{lips@count}{0}
\setcounter{ABCIaux}{0}
\setcounter{ABCImax}{0}
\setcounter{parentequation}{0}
\setcounter{AlgoLine}{0}
\setcounter{algocfline}{0}
\setcounter{algocfproc}{0}
\setcounter{algocf}{0}
\setcounter{float@type}{4}
\setcounter{section@level}{2}
}
